…
``` r
select_numeric_cols <- function(df) {
  numeric_cols <- sapply(df, is.numeric) # Détermine les colonnes numériques
  df_numeric <- df[, numeric_cols] # Sélectionne les colonnes numériques
  return(df_numeric) # Retourne le dataframe avec les colonnes numériques uniquement
}
```

``` r
propertie_num <- select_numeric_cols(properties)
print(propertie_num)
```

    ## # A tibble: 25,351 × 4
    ##     ...1 `Price ($)`   lat   lng
    ##    <dbl>       <dbl> <dbl> <dbl>
    ##  1     0      999888  43.7 -79.5
    ##  2     1      399900  43.2 -79.9
    ##  3     2      479000  43.3 -79.9
    ##  4     3      285900  43.2 -79.8
    ##  5     6      362000  43.7 -79.4
    ##  6     7     1488000  43.7 -79.3
    ##  7     8          25  43.7 -79.5
    ##  8     9      254900  43.3 -79.9
    ##  9    10      364900  43.2 -79.9
    ## 10    12      304900  43.2 -79.8
    ## # … with 25,341 more rows
…
